<?xml version="1.0" encoding="UTF-8"?>
<svg width="21px" height="21px" viewBox="0 0 21 21" version="1.1" xmlns="http://www.w3.org/2000/svg" xmlns:xlink="http://www.w3.org/1999/xlink">
    <!-- Generator: Sketch 52.2 (67145) - http://www.bohemiancoding.com/sketch -->
    <title>Group 5</title>
    <desc>Created with Sketch.</desc>
    <g id="new" stroke="none" stroke-width="1" fill="none" fill-rule="evenodd">
        <g id="homepage" transform="translate(-1244.000000, -32.000000)" fill="#3A4663" fill-rule="nonzero">
            <g id="Group-6" transform="translate(128.000000, 29.000000)">
                <g id="Group-5" transform="translate(1116.000000, 3.000000)">
                    <path d="M6.51471863,16.4852814 C5.41471863,16.4852814 4.51471863,17.3852814 4.51471863,18.4852814 C4.51471863,19.5852814 5.41471863,20.4852814 6.51471863,20.4852814 C7.61471863,20.4852814 8.51471863,19.5852814 8.51471863,18.4852814 C8.51471863,17.3852814 7.61471863,16.4852814 6.51471863,16.4852814 Z M0.514718626,0.485281374 L0.514718626,2.48528137 L2.51471863,2.48528137 L6.11471863,10.0852814 L4.71471863,12.4852814 C4.61471863,12.7852814 4.51471863,13.1852814 4.51471863,13.4852814 C4.51471863,14.5852814 5.41471863,15.4852814 6.51471863,15.4852814 L18.5147186,15.4852814 L18.5147186,13.4852814 L6.91471863,13.4852814 C6.81471863,13.4852814 6.71471863,13.3852814 6.71471863,13.2852814 L6.71471863,13.1852422 L7.61471863,11.4852422 L15.0147186,11.4852422 C15.8147186,11.4852422 16.4147186,11.0852422 16.7147186,10.4852422 L20.3147186,3.98528137 C20.5147186,3.78528137 20.5147186,3.68528137 20.5147186,3.48528137 C20.5147186,2.88528137 20.1147186,2.48528137 19.5147186,2.48528137 L4.71471863,2.48528137 L3.81471863,0.485281374 L0.514718626,0.485281374 Z M16.5147186,16.4852814 C15.4147186,16.4852814 14.5147186,17.3852814 14.5147186,18.4852814 C14.5147186,19.5852814 15.4147186,20.4852814 16.5147186,20.4852814 C17.6147186,20.4852814 18.5147186,19.5852814 18.5147186,18.4852814 C18.5147186,17.3852814 17.6147186,16.4852814 16.5147186,16.4852814 Z" id="Shape"></path>
                </g>
            </g>
        </g>
    </g>
</svg>