<?xml version="1.0" encoding="UTF-8"?>
<svg width="136px" height="46px" viewBox="0 0 136 46" version="1.1" xmlns="http://www.w3.org/2000/svg" xmlns:xlink="http://www.w3.org/1999/xlink">
    <!-- Generator: Sketch 52.2 (67145) - http://www.bohemiancoding.com/sketch -->
    <title>Group 2</title>
    <desc>Created with Sketch.</desc>
    <g id="new" stroke="none" stroke-width="1" fill="none" fill-rule="evenodd">
        <g id="homepage" transform="translate(-851.000000, -3020.000000)">
            <g id="Group-2" transform="translate(851.000000, 3020.000000)">
                <path d="M8,0.5 C3.85786438,0.5 0.5,3.85786438 0.5,8 L0.5,38 C0.5,42.1421356 3.85786438,45.5 8,45.5 L128,45.5 C132.142136,45.5 135.5,42.1421356 135.5,38 L135.5,8 C135.5,3.85786438 132.142136,0.5 128,0.5 L8,0.5 Z" id="Rectangle-2" stroke="#E2E5EB"></path>
                <path d="M43.5,45.5 L43.5,0.5 L8,0.5 C3.85786438,0.5 0.5,3.85786438 0.5,8 L0.5,38 C0.5,42.1421356 3.85786438,45.5 8,45.5 L43.5,45.5 Z" id="Rectangle-2" stroke="#E2E5EB"></path>
                <path d="M92.5,0.5 L92.5,45.5 L128,45.5 C132.142136,45.5 135.5,42.1421356 135.5,38 L135.5,8 C135.5,3.85786438 132.142136,0.5 128,0.5 L92.5,0.5 Z" id="Rectangle-2" stroke="#E2E5EB"></path>
                <text id="1" font-family="Helvetica" font-size="24" font-weight="normal" fill="#243F83">
                    <tspan x="61.8261719" y="29">1</tspan>
                </text>
                <polygon id="underline-[#1437]" fill="#243F83" points="18 23 27 23 27 22 18 22"></polygon>
                <polygon id="plus-[#1512]" fill="#243F83" points="118 23.05 118 23.95 113.95 23.95 113.95 28 113.05 28 113.05 23.95 109 23.95 109 23.05 113.05 23.05 113.05 19 113.95 19 113.95 23.05"></polygon>
            </g>
        </g>
    </g>
</svg>