<?xml version="1.0" encoding="UTF-8"?>
<svg width="134px" height="20px" viewBox="0 0 134 20" version="1.1" xmlns="http://www.w3.org/2000/svg" xmlns:xlink="http://www.w3.org/1999/xlink">
    <!-- Generator: Sketch 52.2 (67145) - http://www.bohemiancoding.com/sketch -->
    <title>Group 2</title>
    <desc>Created with Sketch.</desc>
    <g id="new" stroke="none" stroke-width="1" fill="none" fill-rule="evenodd">
        <g id="homepage" transform="translate(-767.000000, -2935.000000)" fill="#A7C448">
            <g id="Group-2" transform="translate(767.000000, 2935.000000)">
                <g id="148839">
                    <path d="M12.062145,0.627854731 L14.5434663,5.40727209 C14.7160161,5.73968501 15.049643,5.97001838 15.4355855,6.02323935 L20.984255,6.78970852 C21.9562243,6.92406965 22.3440025,8.05915946 21.6409538,8.71046196 L17.6259585,12.4306948 C17.3469417,12.6893836 17.219365,13.0623666 17.2854479,13.4274974 L18.2330951,18.6806686 C18.3992202,19.6006933 17.3831956,20.3021631 16.5140218,19.8681069 L11.5513792,17.388097 C11.2062796,17.2157833 10.7937204,17.2157833 10.4486208,17.388097 L5.4859782,19.8681069 C4.61680444,20.3025994 3.60077978,19.6006933 3.76690486,18.6806686 L4.71455207,13.4274974 C4.78063497,13.0623666 4.65305825,12.6893836 4.37404154,12.4306948 L0.359046182,8.71046196 C-0.344002497,8.05872322 0.0437756581,6.92363341 1.01574505,6.78970852 L6.56441449,6.02323935 C6.950357,5.97001838 7.28398389,5.73968501 7.4565337,5.40727209 L9.93785498,0.627854731 C10.371983,-0.20928491 11.6275581,-0.20928491 12.062145,0.627854731 Z" id="Path"></path>
                </g>
                <g id="148839" transform="translate(28.000000, 0.000000)">
                    <path d="M12.062145,0.627854731 L14.5434663,5.40727209 C14.7160161,5.73968501 15.049643,5.97001838 15.4355855,6.02323935 L20.984255,6.78970852 C21.9562243,6.92406965 22.3440025,8.05915946 21.6409538,8.71046196 L17.6259585,12.4306948 C17.3469417,12.6893836 17.219365,13.0623666 17.2854479,13.4274974 L18.2330951,18.6806686 C18.3992202,19.6006933 17.3831956,20.3021631 16.5140218,19.8681069 L11.5513792,17.388097 C11.2062796,17.2157833 10.7937204,17.2157833 10.4486208,17.388097 L5.4859782,19.8681069 C4.61680444,20.3025994 3.60077978,19.6006933 3.76690486,18.6806686 L4.71455207,13.4274974 C4.78063497,13.0623666 4.65305825,12.6893836 4.37404154,12.4306948 L0.359046182,8.71046196 C-0.344002497,8.05872322 0.0437756581,6.92363341 1.01574505,6.78970852 L6.56441449,6.02323935 C6.950357,5.97001838 7.28398389,5.73968501 7.4565337,5.40727209 L9.93785498,0.627854731 C10.371983,-0.20928491 11.6275581,-0.20928491 12.062145,0.627854731 Z" id="Path"></path>
                </g>
                <g id="148839" transform="translate(56.000000, 0.000000)">
                    <path d="M12.062145,0.627854731 L14.5434663,5.40727209 C14.7160161,5.73968501 15.049643,5.97001838 15.4355855,6.02323935 L20.984255,6.78970852 C21.9562243,6.92406965 22.3440025,8.05915946 21.6409538,8.71046196 L17.6259585,12.4306948 C17.3469417,12.6893836 17.219365,13.0623666 17.2854479,13.4274974 L18.2330951,18.6806686 C18.3992202,19.6006933 17.3831956,20.3021631 16.5140218,19.8681069 L11.5513792,17.388097 C11.2062796,17.2157833 10.7937204,17.2157833 10.4486208,17.388097 L5.4859782,19.8681069 C4.61680444,20.3025994 3.60077978,19.6006933 3.76690486,18.6806686 L4.71455207,13.4274974 C4.78063497,13.0623666 4.65305825,12.6893836 4.37404154,12.4306948 L0.359046182,8.71046196 C-0.344002497,8.05872322 0.0437756581,6.92363341 1.01574505,6.78970852 L6.56441449,6.02323935 C6.950357,5.97001838 7.28398389,5.73968501 7.4565337,5.40727209 L9.93785498,0.627854731 C10.371983,-0.20928491 11.6275581,-0.20928491 12.062145,0.627854731 Z" id="Path"></path>
                </g>
                <g id="148839" transform="translate(84.000000, 0.000000)">
                    <path d="M12.062145,0.627854731 L14.5434663,5.40727209 C14.7160161,5.73968501 15.049643,5.97001838 15.4355855,6.02323935 L20.984255,6.78970852 C21.9562243,6.92406965 22.3440025,8.05915946 21.6409538,8.71046196 L17.6259585,12.4306948 C17.3469417,12.6893836 17.219365,13.0623666 17.2854479,13.4274974 L18.2330951,18.6806686 C18.3992202,19.6006933 17.3831956,20.3021631 16.5140218,19.8681069 L11.5513792,17.388097 C11.2062796,17.2157833 10.7937204,17.2157833 10.4486208,17.388097 L5.4859782,19.8681069 C4.61680444,20.3025994 3.60077978,19.6006933 3.76690486,18.6806686 L4.71455207,13.4274974 C4.78063497,13.0623666 4.65305825,12.6893836 4.37404154,12.4306948 L0.359046182,8.71046196 C-0.344002497,8.05872322 0.0437756581,6.92363341 1.01574505,6.78970852 L6.56441449,6.02323935 C6.950357,5.97001838 7.28398389,5.73968501 7.4565337,5.40727209 L9.93785498,0.627854731 C10.371983,-0.20928491 11.6275581,-0.20928491 12.062145,0.627854731 Z" id="Path"></path>
                </g>
                <g id="148839-copy" transform="translate(112.000000, 0.000000)">
                    <path d="M12.062145,0.627854731 L14.5434663,5.40727209 C14.7160161,5.73968501 15.049643,5.97001838 15.4355855,6.02323935 L20.984255,6.78970852 C21.9562243,6.92406965 22.3440025,8.05915946 21.6409538,8.71046196 L17.6259585,12.4306948 C17.3469417,12.6893836 17.219365,13.0623666 17.2854479,13.4274974 L18.2330951,18.6806686 C18.3992202,19.6006933 17.3831956,20.3021631 16.5140218,19.8681069 L11.5513792,17.388097 C11.2062796,17.2157833 10.7937204,17.2157833 10.4486208,17.388097 L5.4859782,19.8681069 C4.61680444,20.3025994 3.60077978,19.6006933 3.76690486,18.6806686 L4.71455207,13.4274974 C4.78063497,13.0623666 4.65305825,12.6893836 4.37404154,12.4306948 L0.359046182,8.71046196 C-0.344002497,8.05872322 0.0437756581,6.92363341 1.01574505,6.78970852 L6.56441449,6.02323935 C6.950357,5.97001838 7.28398389,5.73968501 7.4565337,5.40727209 L9.93785498,0.627854731 C10.371983,-0.20928491 11.6275581,-0.20928491 12.062145,0.627854731 Z" id="Path"></path>
                </g>
            </g>
        </g>
    </g>
</svg>