<?xml version="1.0" encoding="UTF-8"?>
<svg width="38px" height="43px" viewBox="0 0 38 43" version="1.1" xmlns="http://www.w3.org/2000/svg" xmlns:xlink="http://www.w3.org/1999/xlink">
    <!-- Generator: Sketch 52.2 (67145) - http://www.bohemiancoding.com/sketch -->
    <title>Combined Shape</title>
    <desc>Created with Sketch.</desc>
    <g id="new" stroke="none" stroke-width="1" fill="none" fill-rule="evenodd">
        <g id="homepage" transform="translate(-576.000000, -1121.000000)" fill="#E57531">
            <g id="Combined-Shape-2-Copy" transform="translate(576.000000, 1121.000000)">
                <path d="M21.4084507,8.0625 L21.4084507,13.4375 L0,13.4375 L0,3 C-2.02906125e-16,1.34314575 1.34314575,7.48448398e-16 3,4.4408921e-16 L18.4084507,4.4408921e-16 C20.065305,1.39730022e-16 21.4084507,1.34314575 21.4084507,3 L21.4084507,4.8375 L14.9859155,4.8375 L14.9859155,8.0625 L21.4084507,8.0625 Z M21.4084507,16.6625 L21.4084507,40 C21.4084507,41.6568542 20.065305,43 18.4084507,43 L3,43 C1.34314575,43 3.8818616e-15,41.6568542 0,40 L0,16.6625 L21.4084507,16.6625 Z M29.4366197,3.7625 L32.6478873,3.7625 L32.6478873,4.8375 L29.4366197,4.8375 L29.4366197,3.7625 Z M34.7887324,0.5375 L38,0.5375 L38,1.6125 L34.7887324,1.6125 L34.7887324,0.5375 Z M34.7887324,5.9125 L38,5.9125 L38,6.9875 L34.7887324,6.9875 L34.7887324,5.9125 Z M24.084507,5.9125 L27.2957746,5.9125 L27.2957746,6.9875 L24.084507,6.9875 L24.084507,5.9125 Z M34.7887324,11.2875 L38,11.2875 L38,12.3625 L34.7887324,12.3625 L34.7887324,11.2875 Z M29.4366197,9.1375 L32.6478873,9.1375 L32.6478873,10.2125 L29.4366197,10.2125 L29.4366197,9.1375 Z" id="Combined-Shape"></path>
            </g>
        </g>
    </g>
</svg>