<?xml version="1.0" encoding="UTF-8"?>
<svg width="76px" height="70px" viewBox="0 0 76 70" version="1.1" xmlns="http://www.w3.org/2000/svg" xmlns:xlink="http://www.w3.org/1999/xlink">
    <!-- Generator: Sketch 52.2 (67145) - http://www.bohemiancoding.com/sketch -->
    <title>913393</title>
    <desc>Created with Sketch.</desc>
    <g id="new" stroke="none" stroke-width="1" fill="none" fill-rule="evenodd">
        <g id="homepage" transform="translate(-161.000000, -2071.000000)" fill="#FFFFFF">
            <g id="913393" transform="translate(161.000000, 2071.000000)">
                <path d="M39.8887885,23 L11.1112115,23 C10.4976082,23 10,23.4476736 10,24 C10,24.5523264 10.4974601,25 11.1112115,25 L39.8887885,25 C40.5025399,25 41,24.5523264 41,24 C41,23.4476736 40.5025399,23 39.8887885,23 Z" id="Path"></path>
                <path d="M39.8887885,30 L11.1112115,30 C10.4976082,30 10,30.4476736 10,31 C10,31.5523264 10.4974601,32 11.1112115,32 L39.8887885,32 C40.5025399,32 41,31.5523264 41,31 C41,30.4476736 40.5025399,30 39.8887885,30 Z" id="Path"></path>
                <path d="M39.8887885,37 L11.1112115,37 C10.4976082,37 10,37.4476736 10,38 C10,38.5523264 10.4974601,39 11.1112115,39 L39.8887885,39 C40.5025399,39 41,38.5523264 41,38 C41,37.4476736 40.5025399,37 39.8887885,37 Z" id="Path"></path>
                <path d="M73.9080121,9.57259073 C75.4717999,6.74589313 74.5088866,3.15730929 71.7132169,1.50772073 L70.5598585,0.827332373 C67.7184701,-0.848876846 64.0458324,0.10307198 62.372943,2.94969789 L51.4225689,21.5807388 L51.4225689,16.0884061 C51.4225689,15.8049481 51.3124283,15.5168798 51.0977879,15.3009402 C51.0973426,15.300494 51.0970457,15.2998992 51.0966004,15.299453 C50.7779053,14.9801538 36.7153929,0.891132724 36.3966979,0.571833532 C36.1957137,0.370319603 35.9071514,0.245098402 35.609386,0.245098402 L28.3206652,0.245098402 C27.7058375,0.245098402 27.2072364,0.74449602 27.2072364,1.36063787 C27.2072364,1.97677972 27.7056891,2.47617734 28.3206652,2.47617734 L34.4959572,2.47617734 L34.4959572,14.3732325 C34.4959572,15.934036 35.763464,17.2037968 37.3213143,17.2037968 L49.1957112,17.2037968 L49.1957112,29.0467183 L39.9958591,44.6989224 L11.2935614,44.6989224 C10.6787338,44.6989224 10.1801326,45.19832 10.1801326,45.8144619 C10.1801326,46.430455 10.6785853,46.9300013 11.2935614,46.9300013 L38.6842664,46.9300013 C37.8368374,48.3715323 37.3404628,49.2162549 36.4756666,50.6878271 C36.1636512,51.2186044 36.0766669,51.839654 36.2307449,52.4360162 C36.321737,52.7886284 36.4922916,53.1064404 36.7247445,53.3730932 L34.5477618,57.0767853 C33.7165125,58.4911008 34.1888402,60.3191519 35.6001829,61.151977 L36.0150654,61.3967681 C37.4249236,62.2284034 39.2515941,61.7560726 40.082695,60.3422033 L42.2535917,56.648624 C42.6205289,56.7325014 42.9788568,56.7213475 43.3211534,56.6325624 C43.9061451,56.4808692 44.3974728,56.1099646 44.7041445,55.5881105 L49.1955628,47.9467915 L49.1955628,67.1694357 C49.1955628,67.4943862 48.921399,67.7689211 48.5970633,67.7689211 L2.82520871,67.7689211 C2.50087303,67.7689211 2.22685762,67.4943862 2.22685762,67.1694357 L2.22685762,4.05036548 C2.22685762,3.18229404 2.93163832,2.47617734 3.79806732,2.47617734 L23.124763,2.47617734 C23.7395907,2.47617734 24.2381918,1.97677972 24.2381918,1.36063787 C24.2381918,0.74449602 23.7397391,0.245098402 23.124763,0.245098402 L3.79806732,0.245098402 C1.70376428,0.245247121 0,1.95224112 0,4.05036548 L0,67.1694357 C0,68.7302392 1.26750681,70 2.82520871,70 L48.5969148,70 C50.1547652,70 51.422272,68.7302392 51.422272,67.1694357 L51.422272,44.1584784 L53.7788639,40.1491692 C54.0908793,39.6183919 53.9142388,38.9344343 53.3844658,38.6218274 C52.8548412,38.309518 52.1723261,38.4861959 51.8600138,39.0169732 C50.8476709,40.7392852 43.8751217,52.6021351 42.8653022,54.3199856 C42.8103803,54.4130835 42.691482,54.4425298 42.5998961,54.3883962 C42.4805525,54.3179035 38.6139071,52.0365576 38.5618056,52.0057728 C38.4485478,51.9388494 38.4106963,51.792064 38.4774931,51.6784428 C38.9179068,50.929049 52.1028574,28.4967563 52.8215912,27.2741394 L57.232408,29.8765691 L54.4999727,34.5255177 C54.1879573,35.056295 54.3645978,35.7402526 54.8943708,36.0528594 C55.4241438,36.3654663 56.1066589,36.188491 56.4188227,35.6577137 L59.1760471,30.9666776 C59.4206719,31.0501089 59.6734608,31.0905604 59.92432,31.0905604 C60.7257334,31.0905604 61.5075531,30.6778658 61.9430684,29.9370976 L72.7369896,11.5728581 C73.9204808,12.9812249 74.1302228,15.030272 73.1638955,16.674358 L65.7375732,29.3090583 C65.4255578,29.8398355 65.6021983,30.5237931 66.1319713,30.8364 C66.6615959,31.1487094 67.344111,30.9723289 67.6564233,30.4412542 L75.0827455,17.806554 C76.6695412,15.106416 76.1465963,11.67711 73.9080121,9.57259073 Z M37.3211659,14.9728666 C36.9966818,14.9728666 36.7226664,14.6983317 36.7226664,14.3733812 L36.7226664,4.05378602 L47.620939,14.9727179 L37.3211659,14.9727179 L37.3211659,14.9728666 Z M38.5831805,54.6082025 L40.2804136,55.6096747 L38.1638449,59.2104535 C37.9592982,59.5584554 37.4927595,59.6795125 37.1449707,59.474578 L36.7300882,59.2297869 C36.3825963,59.0247037 36.2619167,58.5572807 36.4666119,58.2089813 L38.5831805,54.6082025 Z M71.9127168,8.57825705 L60.023773,28.8053478 C59.9926012,28.858143 59.92432,28.8758405 59.8714763,28.8450557 L52.414279,24.445211 C52.4073025,24.4410469 52.3862243,24.4287032 52.3780603,24.3970261 C52.3697478,24.365349 52.3822165,24.3442309 52.3865212,24.3370924 L64.2916447,4.08174514 C65.3419876,2.29474044 67.6473686,1.69793203 69.4298047,2.74967115 L70.5831631,3.43020823 C72.3664899,4.48209606 72.9627628,6.79169851 71.9127168,8.57825705 Z" id="Shape" fill-rule="nonzero"></path>
                <path d="M32.5684803,57.1564993 L29.8567584,55.2158261 C29.2642243,54.791818 28.4208891,54.8115648 27.8525642,55.2624505 L26.1774079,56.590561 L22.5966655,53.4613762 C21.9173326,52.8677376 20.8701385,52.8442882 20.1606919,53.406524 L15.3885337,57.1889993 C14.9233929,57.5576065 14.8680366,58.2069202 15.2649783,58.6391561 C15.6619201,59.071392 16.3605908,59.1224046 16.8258791,58.7537974 L21.3330651,55.1814063 L24.8792651,58.2804223 C25.578231,58.8914766 26.6558342,58.9156116 27.3859472,58.3369201 L28.9056629,57.1319529 L31.2170479,58.7861602 C31.7018217,59.1329637 32.3968019,59.0487654 32.7699774,58.599114 C33.1430052,58.1490511 33.0528113,57.5031656 32.5684803,57.1564993 Z" id="Path"></path>
            </g>
        </g>
    </g>
</svg>